// Jest Snapshot v1, https://goo.gl/fbAQLP

exports[`rule attribute-allowed-values smoketest 1`] = `
Array [
  Object {
    "errorCount": 1,
    "filePath": "test-files/rules/attribute-allowed-values.html",
    "messages": Array [
      Object {
        "column": 8,
        "line": 3,
        "message": "Attribute \\"type\\" has invalid value \\"foobar\\"",
        "offset": 35,
        "ruleId": "attribute-allowed-values",
        "severity": 2,
      },
    ],
    "warningCount": 0,
  },
]
`;
