// Jest Snapshot v1, https://goo.gl/fbAQLP

exports[`rule no-dup-class smoketest 1`] = `
Array [
  Object {
    "errorCount": 1,
    "filePath": "test-files/rules/no-dup-class.html",
    "messages": Array [
      Object {
        "column": 6,
        "line": 5,
        "message": "Class \\"foo\\" duplicated",
        "offset": 59,
        "ruleId": "no-dup-class",
        "severity": 2,
      },
    ],
    "warningCount": 0,
  },
]
`;
