// Jest Snapshot v1, https://goo.gl/fbAQLP

exports[`rule no-dup-id smoketest 1`] = `
Array [
  Object {
    "errorCount": 1,
    "filePath": "test-files/rules/no-dup-id.html",
    "messages": Array [
      Object {
        "column": 1,
        "line": 3,
        "message": "Duplicate ID \\"foo\\"",
        "offset": 42,
        "ruleId": "no-dup-id",
        "severity": 2,
      },
    ],
    "warningCount": 0,
  },
]
`;
